<svg xmlns="http://www.w3.org/2000/svg" width="24" height="24" viewBox="0 0 24 24">
  <g id="Grupo_11701" data-name="Grupo 11701" transform="translate(-38 -325)">
    <g id="Grupo_11700" data-name="Grupo 11700">
      <rect id="Retângulo_1071" data-name="Retângulo 1071" width="19" height="17" transform="translate(41 328)" fill="#ff6997"/>
      <g id="Grupo_10875" data-name="Grupo 10875" transform="translate(-27 -1)">
        <path id="Caminho_6420" data-name="Caminho 6420" d="M252.91.04H242.87a6.986,6.986,0,0,0-6.98,6.98V17.07a6.978,6.978,0,0,0,6.98,6.97h10.04a6.971,6.971,0,0,0,6.98-6.97V7.02A6.98,6.98,0,0,0,252.91.04Zm2.48,17.5a1.993,1.993,0,0,1-2,2h-11a2,2,0,0,1-2-2v-11a2.006,2.006,0,0,1,2-2h11a2,2,0,0,1,2,2Z" transform="translate(-170.89 325.96)" fill="#ff6997"/>
        <g id="Grupo_10870" data-name="Grupo 10870" transform="translate(-170.89 325.96)">
          <path id="Caminho_6917" data-name="Caminho 6917" d="M1,0h9a1,1,0,0,1,1,1h0a1,1,0,0,1-1,1H1A1,1,0,0,1,0,1H0A1,1,0,0,1,1,0Z" transform="translate(242.39 6.54)" fill="#dcdff4"/>
          <path id="Caminho_6918" data-name="Caminho 6918" d="M1,0h9a1,1,0,0,1,1,1h0a1,1,0,0,1-1,1H1A1,1,0,0,1,0,1H0A1,1,0,0,1,1,0Z" transform="translate(242.39 9.54)" fill="#dcdff4"/>
          <path id="Caminho_6915" data-name="Caminho 6915" d="M1,0h9a1,1,0,0,1,1,1h0a1,1,0,0,1-1,1H1A1,1,0,0,1,0,1H0A1,1,0,0,1,1,0Z" transform="translate(242.39 12.54)" fill="#dcdff4"/>
          <path id="Caminho_6916" data-name="Caminho 6916" d="M1,0H4.5a1,1,0,0,1,1,1h0a1,1,0,0,1-1,1H1A1,1,0,0,1,0,1H0A1,1,0,0,1,1,0Z" transform="translate(242.39 15.54)" fill="#dcdff4"/>
        </g>
      </g>
    </g>
  </g>
</svg>
