<svg xmlns="http://www.w3.org/2000/svg" width="30.353" height="26.559" viewBox="0 0 30.353 26.559">
  <path id="_2205238_delivery_logistics_shipping_truck_icon" data-name=" 2205238 delivery logistics shipping truck icon" d="M980.436,244.426h-2.97V236a1.056,1.056,0,0,0-1.056-1.056H955.756A1.056,1.056,0,0,0,954.7,236V256.65a1.056,1.056,0,0,0,1.055,1.056H958.5a3.794,3.794,0,0,0,7.588,0h7.588a3.794,3.794,0,0,0,7.588,0H984a1.056,1.056,0,0,0,1.056-1.056v-5.477A1.056,1.056,0,0,0,984,250.118h-1.316l-1.223-4.892A1.056,1.056,0,0,0,980.436,244.426Z" transform="translate(-954.701 -234.941)" fill="#d8d6d6"/>
</svg>
