<svg xmlns="http://www.w3.org/2000/svg" width="24" height="22.814" viewBox="0 0 24 22.814">
  <path id="_186400_heart_like_love_icon_1_" data-name="186400_heart_like_love_icon (1)" d="M20.155,4.514A5.893,5.893,0,0,0,14.87,7.562,5.937,5.937,0,0,0,9.559,4.514C6,4.514,1.238,7.379,3.409,15.2,5.888,22.836,14.87,27.329,14.87,27.327s8.968-4.49,11.448-12.131C28.488,7.379,23.709,4.514,20.155,4.514Z" transform="translate(-2.863 -4.513)" fill="#707070"/>
</svg>
