<svg xmlns="http://www.w3.org/2000/svg" width="24" height="24" viewBox="0 0 24 24">
  <path id="_2639892_price_tag_icon" data-name="2639892_price_tag_icon" d="M23,3H17a1.99,1.99,0,0,0-1.414.586l-12,12a2,2,0,0,0,0,2.828l8,8a2,2,0,0,0,2.828,0l12-12A1.99,1.99,0,0,0,27,13V7A4,4,0,0,0,23,3Zm0,6a2,2,0,1,1,2-2A2,2,0,0,1,23,9Z" transform="translate(-3 -3)" fill="#ff6997"/>
</svg>
