<svg xmlns="http://www.w3.org/2000/svg" width="24" height="23.964" viewBox="0 0 24 23.964">
  <g id="Grupo_10874" data-name="Grupo 10874" transform="translate(-298.532 -0.072)">
    <path id="Caminho_6424" data-name="Caminho 6424" d="M304.1.072c-3.077,0-5.571,1.226-5.571,2.739v20.05a.848.848,0,0,0,1.269.746,8.682,8.682,0,0,1,4.3-1,7.937,7.937,0,0,1,4.757,1.312.51.51,0,0,0,.815-.415V2.811C309.675,1.3,307.18.072,304.1.072Z" fill="#2d3a9e"/>
    <path id="Caminho_6425" data-name="Caminho 6425" d="M316.96.072c3.077,0,5.572,1.226,5.572,2.739v20.05a.848.848,0,0,1-1.269.746,8.683,8.683,0,0,0-4.3-1,7.918,7.918,0,0,0-4.768,1.322.5.5,0,0,1-.8-.409V2.811C311.389,1.3,313.883.072,316.96.072Z" fill="#2d3a9e"/>
  </g>
</svg>
