<svg xmlns="http://www.w3.org/2000/svg" width="176" height="173" viewBox="0 0 176 173">
  <g id="Grupo_26" data-name="Grupo 26" transform="translate(-200.306 -1222)" opacity="0.5">
    <g id="Retângulo_27" data-name="Retângulo 27" transform="translate(200.306 1222)" fill="none" stroke="#707070" stroke-width="2">
      <rect width="176" height="173" stroke="none"/>
      <rect x="1" y="1" width="174" height="171" fill="none"/>
    </g>
    <g id="_211677_image_icon" data-name="211677_image_icon" transform="translate(255.096 1280.401)">
      <path id="Caminho_17" data-name="Caminho 17" d="M327.044,142.088A7.044,7.044,0,1,0,320,135.044,7.046,7.046,0,0,0,327.044,142.088Z" transform="translate(-277.735 -118.608)" fill="#707070"/>
      <path id="Caminho_18" data-name="Caminho 18" d="M93.636,64H36.109A4.121,4.121,0,0,0,32,68.153V116.2a4.121,4.121,0,0,0,4.109,4.153H93.636a4.121,4.121,0,0,0,4.109-4.153V68.153A4.121,4.121,0,0,0,93.636,64ZM78.506,93.013a2.52,2.52,0,0,0-1.878-.91,2.9,2.9,0,0,0-1.878.837L72,95.258a2.754,2.754,0,0,1-1.688.69,2.428,2.428,0,0,1-1.614-.6c-.147-.132-.411-.382-.631-.6l-7.9-8.541a3.236,3.236,0,0,0-2.451-1.1,3.333,3.333,0,0,0-2.465,1.145L36.7,108.642V70.413A1.935,1.935,0,0,1,38.619,68.7H91.112A1.863,1.863,0,0,1,93,70.457l.044,38.214Z" transform="translate(-32 -64)" fill="#707070"/>
    </g>
  </g>
</svg>
